,Fin_Pickle,Dechaulage,Pretannage_Tannage,Pickle
0,5211.544394197829,14964.77695334474,38092.705028291,11663.747009372242
1,6388.455605802171,17617.04122847344,41917.294971709,14652.252990627758
2,4623.088788395658,13638.64481578039,36180.410056582,10169.494018744483
3,6976.911211604342,18943.17336603779,43829.589943418,16146.505981255517
